<?xml version="1.0" standalone="no"?>
<!DOCTYPE svg PUBLIC "-//W3C//DTD SVG 20010904//EN"
 "http://www.w3.org/TR/2001/REC-SVG-20010904/DTD/svg10.dtd">
<svg version="1.0" xmlns="http://www.w3.org/2000/svg"
 width="900.000000pt" height="900.000000pt" viewBox="0 0 900.000000 900.000000"
 preserveAspectRatio="xMidYMid meet">
<metadata>
Created by potrace 1.16, written by Peter Selinger 2001-2019
</metadata>
<g transform="translate(0.000000,900.000000) scale(0.100000,-0.100000)"
fill="#000000" stroke="none">
<path d="M2099 6880 c-217 -14 -646 -79 -723 -110 -14 -6 6 -9 64 -9 213 -2
623 -118 910 -258 127 -62 216 -115 374 -223 111 -76 343 -303 409 -400 17
-25 34 -47 37 -50 8 -5 140 -218 140 -225 0 -6 155 -288 183 -332 15 -24 27
-45 27 -48 0 -3 18 -33 40 -66 22 -33 40 -62 40 -64 0 -8 120 -178 192 -274
398 -523 915 -909 1353 -1010 33 -7 22 -9 -65 -10 -512 -5 -894 -208 -1060
-564 -39 -83 -65 -165 -56 -174 2 -3 28 2 58 10 131 36 185 42 393 42 147 0
231 -4 280 -15 100 -21 426 -19 568 3 403 64 865 266 1207 527 41 32 88 71
103 88 l29 30 -49 18 c-65 24 -202 96 -253 133 -184 133 -285 300 -311 513
-26 215 44 425 242 728 200 305 546 639 921 889 189 125 327 202 541 299 l109
50 -44 30 c-216 148 -487 209 -765 171 -177 -24 -400 -111 -560 -219 -68 -46
-63 -29 9 28 105 83 235 163 407 249 90 46 155 83 143 83 -48 0 -307 -61 -422
-100 -297 -100 -539 -251 -744 -464 -91 -95 -208 -252 -250 -336 -43 -85 -97
-241 -118 -339 -31 -141 -33 -460 -5 -616 28 -155 73 -329 118 -455 22 -63 43
-124 46 -135 10 -30 -133 93 -263 227 -167 174 -326 394 -467 648 -38 69 -229
451 -316 633 -141 295 -328 516 -601 709 -159 113 -452 248 -580 268 -25 4
-99 21 -165 38 -247 62 -408 81 -730 86 -143 3 -321 1 -396 -4z"/>
<path d="M5185 2184 c-122 -31 -191 -90 -219 -185 -22 -71 -21 -212 1 -280 24
-74 99 -150 168 -170 63 -18 176 -18 238 0 63 18 128 77 158 143 21 46 24 68
24 168 0 99 -3 122 -23 166 -29 65 -84 119 -142 139 -46 17 -169 28 -205 19z
m140 -156 c40 -31 55 -77 55 -168 0 -130 -40 -190 -126 -190 -83 0 -128 67
-128 190 0 82 17 132 55 165 40 33 104 34 144 3z"/>
<path d="M2750 1860 l0 -320 76 0 76 0 -4 231 c-2 127 -2 225 1 217 3 -7 32
-110 66 -228 l60 -215 81 -3 81 -3 52 188 c88 315 80 310 80 46 l1 -233 75 0
75 0 0 320 0 320 -113 0 -113 0 -64 -225 c-35 -124 -67 -222 -71 -218 -4 5
-35 106 -70 226 l-63 217 -113 0 -113 0 0 -320z"/>
<path d="M3600 1860 l0 -320 185 0 185 0 0 70 0 70 -100 0 -100 0 0 60 0 60
95 0 95 0 0 70 0 70 -95 0 -95 0 0 50 0 50 100 0 100 0 0 70 0 70 -185 0 -185
0 0 -320z"/>
<path d="M4070 1860 l0 -322 153 4 c162 5 209 16 282 72 102 78 133 306 59
433 -56 97 -125 124 -336 131 l-158 4 0 -322z m301 157 c45 -30 62 -82 56
-173 -6 -113 -52 -164 -146 -164 l-41 0 0 180 0 180 49 0 c33 0 58 -7 82 -23z"/>
<path d="M5660 1860 l0 -320 76 0 76 0 -3 226 c-2 124 0 220 4 212 5 -7 58
-109 118 -225 l110 -213 110 0 109 0 0 320 0 320 -76 0 -76 0 3 -219 c2 -121
2 -217 -1 -215 -3 3 -55 101 -116 217 l-111 212 -112 3 -111 3 0 -321z"/>
<path d="M4650 1785 l0 -65 120 0 120 0 0 65 0 65 -120 0 -120 0 0 -65z"/>
</g>
</svg>
